{
    "globalData": {
        "uniqueCountId": 0
    },
    "nextStep": [],
    "finalReport": {
        "wp-config-changes": {
            "shortMsg": "wp-config.php changes",
            "level": 0,
            "longMsg": "        <a class=\"dup-ligthbox-link\" data-dup-ligthbox=\"dup-light-1-1556891965-7121\" >wp-config.php changes<\/a>\r\n        <div id=\"dup-light-1-1556891965-7121\" class=\"dub-ligthbox-content close\">\r\n            <div class=\"wrapper\" >\r\n                <h2 class=\"title\" >WP-CONFIG.PHP COMPARE<\/h2>\r\n                <div class=\"content\" ><div class=\"row-cols-2\"><div class=\"col col-1\" style=\"background-color:#fff7f7\"><b style=\"color:maroon\"><i class=\"fas fa-sticky-note\"><\/i> Original wp-config.php<\/b><pre class=\"s4-diff-viewer\">&lt;?php\n\/**\n * The base configuration for WordPress\n *\n * The wp-config.php creation script uses this file during the\n * installation. You don't have to use the web site, you can\n * copy this file to &quot;wp-config.php&quot; and fill in the values.\n *\n * This file contains the following configurations:\n *\n * * MySQL settings\n * * Secret keys\n * * Database table prefix\n * * ABSPATH\n *\n * @link https:\/\/codex.wordpress.org\/Editing_wp-config.php\n *\n * @package WordPress\n *\/\n\n\/\/ ** MySQL settings - You can get this info from your web host ** \/\/\n\/** The name of the database for WordPress *\/\ndefine( 'DB_NAME', '**OBSCURED**' );\n\n\/** MySQL database username *\/\ndefine( 'DB_USER', '**OBSCURED**' );\n\n\/** MySQL database password *\/\ndefine( 'DB_PASSWORD', '**OBSCURED**' );\n\n\/** MySQL hostname *\/\ndefine( 'DB_HOST', '**OBSCURED**' );\n\n\/** Database Charset to use in creating database tables. *\/\ndefine( 'DB_CHARSET', 'utf8mb4' );\n\n\/** The Database Collate type. Don't change this if in doubt. *\/\ndefine( 'DB_COLLATE', '' );\n\n\/**#@+\n * Authentication Unique Keys and Salts.\n *\n * Change these to different unique phrases!\n * You can generate these using the {@link https:\/\/api.wordpress.org\/secret-key\/1.1\/salt\/ WordPress.org secret-key service}\n * You can change these at any point in time to invalidate all existing cookies. This will force all users to have to log in again.\n *\n * @since 2.6.0\n *\/\ndefine( 'AUTH_KEY',         '**OBSCURED**' );\ndefine( 'SECURE_AUTH_KEY',  '**OBSCURED**' );\ndefine( 'LOGGED_IN_KEY',    '**OBSCURED**' );\ndefine( 'NONCE_KEY',        '**OBSCURED**' );\ndefine( 'AUTH_SALT',        '**OBSCURED**' );\ndefine( 'SECURE_AUTH_SALT', '**OBSCURED**' );\ndefine( 'LOGGED_IN_SALT',   '**OBSCURED**' );\ndefine( 'NONCE_SALT',       '**OBSCURED**' );\n\n\/**#@-*\/\n\n\/**\n * WordPress Database Table prefix.\n *\n * You can have multiple installations in one database if you give each\n * a unique prefix. Only numbers, letters, and underscores please!\n *\/\n$table_prefix = 'wpqd_';\n\n\/**\n * For developers: WordPress debugging mode.\n *\n * Change this to true to enable the display of notices during development.\n * It is strongly recommended that plugin and theme developers use WP_DEBUG\n * in their development environments.\n *\n * For information on other constants that can be used for debugging,\n * visit the Codex.\n *\n * @link https:\/\/codex.wordpress.org\/Debugging_in_WordPress\n *\/\ndefine( 'WP_DEBUG', false );\n\n\/* That's all, stop editing! Happy publishing. *\/\n\n\/** Absolute path to the WordPress directory. *\/\nif ( ! defined( 'ABSPATH' ) ) {\n\tdefine( 'ABSPATH', dirname( __FILE__ ) . '\/' );\n}\n\n\/** Sets up WordPress vars and included files. *\/\nrequire_once( ABSPATH . 'wp-settings.php' );\n<\/pre><\/div><div class=\"col col-2\" style=\"background-color:#f7fdf1\"><b style=\"color:green\"><i class=\"far fa-sticky-note\"><\/i> New wp-config.php<\/b><pre class=\"s4-diff-viewer\">&lt;?php\n\/**\n * The base configuration for WordPress\n *\n * The wp-config.php creation script uses this file during the\n * installation. You don't have to use the web site, you can\n * copy this file to &quot;wp-config.php&quot; and fill in the values.\n *\n * This file contains the following configurations:\n *\n * * MySQL settings\n * * Secret keys\n * * Database table prefix\n * * ABSPATH\n *\n * @link https:\/\/codex.wordpress.org\/Editing_wp-config.php\n *\n * @package WordPress\n *\/\n\n\/\/ ** MySQL settings - You can get this info from your web host ** \/\/\n\/** The name of the database for WordPress *\/\ndefine( 'DB_NAME', '**OBSCURED**' );\n\n\/** MySQL database username *\/\ndefine( 'DB_USER', '**OBSCURED**' );\n\n\/** MySQL database password *\/\ndefine( 'DB_PASSWORD', '**OBSCURED**' );\n\n\/** MySQL hostname *\/\ndefine( 'DB_HOST', '**OBSCURED**' );\n\n\/** Database Charset to use in creating database tables. *\/\ndefine( 'DB_CHARSET', 'utf8mb4' );\n\n\/** The Database Collate type. Don't change this if in doubt. *\/\ndefine( 'DB_COLLATE', '' );\n\n\/**#@+\n * Authentication Unique Keys and Salts.\n *\n * Change these to different unique phrases!\n * You can generate these using the {@link https:\/\/api.wordpress.org\/secret-key\/1.1\/salt\/ WordPress.org secret-key service}\n * You can change these at any point in time to invalidate all existing cookies. This will force all users to have to log in again.\n *\n * @since 2.6.0\n *\/\ndefine( 'AUTH_KEY',         '**OBSCURED**' );\ndefine( 'SECURE_AUTH_KEY',  '**OBSCURED**' );\ndefine( 'LOGGED_IN_KEY',    '**OBSCURED**' );\ndefine( 'NONCE_KEY',        '**OBSCURED**' );\ndefine( 'AUTH_SALT',        '**OBSCURED**' );\ndefine( 'SECURE_AUTH_SALT', '**OBSCURED**' );\ndefine( 'LOGGED_IN_SALT',   '**OBSCURED**' );\ndefine( 'NONCE_SALT',       '**OBSCURED**' );\n\n\/**#@-*\/\n\n\/**\n * WordPress Database Table prefix.\n *\n * You can have multiple installations in one database if you give each\n * a unique prefix. Only numbers, letters, and underscores please!\n *\/\n$table_prefix = 'wpqd_';\n\n\/**\n * For developers: WordPress debugging mode.\n *\n * Change this to true to enable the display of notices during development.\n * It is strongly recommended that plugin and theme developers use WP_DEBUG\n * in their development environments.\n *\n * For information on other constants that can be used for debugging,\n * visit the Codex.\n *\n * @link https:\/\/codex.wordpress.org\/Debugging_in_WordPress\n *\/\ndefine( 'WP_DEBUG', false );\n\n\/* That's all, stop editing! Happy publishing. *\/\n\n\/** Absolute path to the WordPress directory. *\/\nif ( ! defined( 'ABSPATH' ) ) {\n\tdefine( 'ABSPATH', dirname( __FILE__ ) . '\/' );\n}\n\n\/** Sets up WordPress vars and included files. *\/\nrequire_once( ABSPATH . 'wp-settings.php' );\n<\/pre><\/div><\/div><\/div>                <button class=\"close-button\" title=\"Close\" ><i class=\"fa fa-2x fa-times\"><\/i><\/button>\r\n            <\/div>\r\n        <\/div>\r\n        ",
            "sections": [
                "changes"
            ],
            "faqLink": null,
            "priority": 10,
            "open": true,
            "longMsgHtml": true
        },
        "htaccess-changes": {
            "shortMsg": "htaccess changes",
            "level": 0,
            "longMsg": "        <a class=\"dup-ligthbox-link\" data-dup-ligthbox=\"dup-light-2-1556891965-7122\" >.htaccess changes<\/a>\r\n        <div id=\"dup-light-2-1556891965-7122\" class=\"dub-ligthbox-content close\">\r\n            <div class=\"wrapper\" >\r\n                <h2 class=\"title\" >HTACCESS COMPARE<\/h2>\r\n                <div class=\"content\" ><div class=\"row-cols-2\"><div class=\"col col-1\" style=\"background-color:#fff7f7\"><b style=\"color:maroon\"><i class=\"fas fa-sticky-note\"><\/i> Original .htaccess<\/b><pre>\n# BEGIN WordPress\n&lt;IfModule mod_rewrite.c&gt;\nRewriteEngine On\nRewriteBase \/ads-quotient\/\nRewriteRule ^index\\.php$ - [L]\nRewriteCond %{REQUEST_FILENAME} !-f\nRewriteCond %{REQUEST_FILENAME} !-d\nRewriteRule . \/ads-quotient\/index.php [L]\n&lt;\/IfModule&gt;\n\n# END WordPress<\/pre><\/div><div class=\"col col-2\" style=\"background-color:#f7fdf1\"><b style=\"color:green\"><i class=\"far fa-sticky-note\"><\/i> New .htaccess<\/b><pre>#This Apache config file was created by Duplicator Installer on 2019-05-03 13:59:25.\n#The original can be found in archived file with the name htaccess.orig\n\r\n# BEGIN WordPress\r\n&lt;IfModule mod_rewrite.c&gt;\r\nRewriteEngine On\r\nRewriteBase \/demo\/\r\nRewriteRule ^index\\.php$ - [L]\r\nRewriteCond %{REQUEST_FILENAME} !-f\r\nRewriteCond %{REQUEST_FILENAME} !-d\r\nRewriteRule . \/demo\/index.php [L]\r\n&lt;\/IfModule&gt;\r\n# END WordPress<\/pre><\/div><\/div><\/div>                <button class=\"close-button\" title=\"Close\" ><i class=\"fa fa-2x fa-times\"><\/i><\/button>\r\n            <\/div>\r\n        <\/div>\r\n        ",
            "sections": [
                "changes"
            ],
            "faqLink": null,
            "priority": 10,
            "open": true,
            "longMsgHtml": true
        }
    }
}